{
    "data": [
      {
        "goods_id": 16838,
        "goods_english_name": "日本AITO",
        "currency_price": "￥239",
        "rank_price": "￥0",
        "goods_brokerage_per": "12.50",
        "service_price": "",
        "shipping_price": "￥0",
        "is_recommended": 0,
        "is_on_sale": 1,
        "goods_name": "HANACOMON花小纹餐碟礼盒5件套",
        "goods_brief": "商品材质\t美浓烧陶瓷\r\n商品功能（特点）\t以身边绽放的花朵为主题的小花纹，将花语所蕴含的祝愿融入每日使用的器具中。\r\n规格尺寸\t約φ21.5×H3.7cm，770ml\r\n使用方式\t盛放各类美食\r\n包装方式\t礼盒包装\r\n备注说明\t釉下彩\r\n商品描述\t小花纹起源于室町时代，始于武士礼装中的上下身礼服的花纹。而后在民间出现了代表“子孙繁荣”“幸福”“消灾”等各种寓意的小花纹，现在也常见于各种生活用品上。以身边绽放的花朵为主题的小花纹，将花语所蕴含的祝愿融入每日使用的器具中。\r\n",
        "weblink": "",
        "is_promote": 0,
        "link_website": "",
        "goods_thumb": "http://img.fulishe.com/images/201908/thumb_img/16838_thumb_G_1565071319409.jpeg",
        "percentage": "0%",
        "total_goods_brokerage": 29.875,
        "is_favorited": 0,
        "isNew": 0
      },
      {
        "goods_id": 16841,
        "goods_english_name": "法国La Rochère",
        "currency_price": "￥128",
        "rank_price": "￥0",
        "goods_brokerage_per": "12.50",
        "service_price": "",
        "shipping_price": "￥0",
        "is_recommended": 0,
        "is_on_sale": 1,
        "goods_name": "凡尔赛系列玻璃盘水果盘汤盘24cm",
        "goods_brief": "商品材质\t玻璃\r\n商品功能（特点）\t意大利玻璃工艺，即可家居实用，也可观赏摆设\r\n规格尺寸\t24cm\r\n商品重量\t695g\r\n备注说明\t温度不要超过90度\r\n商品描述\t1.传承工艺。2.材料环保无铅。3.La Rochère法兰西血统里的优雅与骄傲。4.火烧打磨，透光性强。5.不同图腾 寓意深刻。",
        "weblink": "",
        "is_promote": 0,
        "link_website": "",
        "goods_thumb": "http://img.fulishe.com/images/201908/thumb_img/16841_thumb_G_1565072219546.jpeg",
        "percentage": "0%",
        "total_goods_brokerage": 16,
        "is_favorited": 0,
        "isNew": 0
      },
      {
        "goods_id": 16842,
        "goods_english_name": "法国La Rochère",
        "currency_price": "￥109",
        "rank_price": "￥0",
        "goods_brokerage_per": "12.50",
        "service_price": "",
        "shipping_price": "￥0",
        "is_recommended": 0,
        "is_on_sale": 1,
        "goods_name": "PRESSES系列宽口杯玻璃杯酒杯",
        "goods_brief": "商品材质\t玻璃\r\n商品功能（特点）\t意大利玻璃工艺，即可家居实用，也可观赏摆设\r\n规格尺寸\t高：12.75cm，直径：13.05cm， 容量：370ml\r\n商品重量\t470g\r\n备注说明\t温度不要超过90度\r\n商品描述\t1.传承工艺。2.材料环保无铅。3.La Rochère法兰西血统里的优雅与骄傲。4.火烧打磨，透光性强。5.不同图腾 寓意深刻。",
        "weblink": "",
        "is_promote": 0,
        "link_website": "",
        "goods_thumb": "http://img.fulishe.com/images/201908/thumb_img/16842_thumb_G_1565072382829.jpeg",
        "percentage": "0%",
        "total_goods_brokerage": 13.625,
        "is_favorited": 0,
        "isNew": 0
      },
      {
        "goods_id": 16835,
        "goods_english_name": "ESTEE LAUDER 雅诗兰黛",
        "currency_price": "￥568",
        "rank_price": "￥0",
        "goods_brokerage_per": "12.50",
        "service_price": "",
        "shipping_price": "￥0",
        "is_recommended": 0,
        "is_on_sale": 1,
        "goods_name": "真爱淡香氛30ml",
        "goods_brief": "花香调女士持久",
        "weblink": "",
        "is_promote": 0,
        "link_website": "",
        "goods_thumb": "http://img.fulishe.com/images/201908/thumb_img/16835_thumb_G_1564654237538.png",
        "percentage": "0%",
        "total_goods_brokerage": 71,
        "is_favorited": 0,
        "isNew": 0
      },
      {
        "goods_id": 16840,
        "goods_english_name": "法国La Rochère",
        "currency_price": "￥89",
        "rank_price": "￥0",
        "goods_brokerage_per": "12.50",
        "service_price": "",
        "shipping_price": "￥0",
        "is_recommended": 0,
        "is_on_sale": 1,
        "goods_name": "凡尔赛系列高脚酒杯玻璃杯水杯",
        "goods_brief": "商品材质\t玻璃\r\n商品功能（特点）\t喝红酒、白酒、果汁等饮品\r\n规格尺寸\t直径8cm，高13.5cm， 容量200ml\r\n备注说明\t温度不要超过90度\r\n商品描述\t1.传承工艺。2.材料环保无铅。3.La Rochère法兰西血统里的优雅与骄傲。4.火烧打磨，透光性强。5.不同图腾 寓意深刻。",
        "weblink": "",
        "is_promote": 0,
        "link_website": "",
        "goods_thumb": "http://img.fulishe.com/images/201908/thumb_img/16840_thumb_G_1565072090775.jpeg",
        "percentage": "0%",
        "total_goods_brokerage": 11.125,
        "is_favorited": 0,
        "isNew": 0
      },
      {
        "goods_id": 16834,
        "goods_english_name": "sisley希思黎",
        "currency_price": "￥568",
        "rank_price": "￥0",
        "goods_brokerage_per": "12.50",
        "service_price": "",
        "shipping_price": "￥0",
        "is_recommended": 0,
        "is_on_sale": 1,
        "goods_name": "伊莎香水30ml ",
        "goods_brief": "规格：30ml",
        "weblink": "",
        "is_promote": 0,
        "link_website": "",
        "goods_thumb": "http://img.fulishe.com/images/201908/thumb_img/16834_thumb_G_1564653235961.png",
        "percentage": "0%",
        "total_goods_brokerage": 71,
        "is_favorited": 0,
        "isNew": 0
      },
      {
        "goods_id": 16844,
        "goods_english_name": "法国La Rochère",
        "currency_price": "￥128",
        "rank_price": "￥0",
        "goods_brokerage_per": "12.50",
        "service_price": "",
        "shipping_price": "￥0",
        "is_recommended": 0,
        "is_on_sale": 1,
        "goods_name": "凡尔赛系列玻璃碗沙拉碗透明碗M",
        "goods_brief": "商品材质\t玻璃\r\n商品功能（特点）\t意大利玻璃工艺，即可家居实用，也可观赏摆设\r\n规格尺寸\t高8.5cm，直径13.8cm， 容量600ml\r\n备注说明\t温度不要超过90度\r\n商品描述\t1.传承工艺。2.材料环保无铅。3.La Rochère法兰西血统里的优雅与骄傲。4.火烧打磨，透光性强。5.不同图腾 寓意深刻。",
        "weblink": "",
        "is_promote": 0,
        "link_website": "",
        "goods_thumb": "http://img.fulishe.com/images/201908/thumb_img/16844_thumb_G_1565072930059.jpeg",
        "percentage": "0%",
        "total_goods_brokerage": 16,
        "is_favorited": 0,
        "isNew": 0
      },
      {
        "goods_id": 16837,
        "goods_english_name": "日本AITO",
        "currency_price": "￥129",
        "rank_price": "￥0",
        "goods_brokerage_per": "12.50",
        "service_price": "",
        "shipping_price": "￥0",
        "is_recommended": 0,
        "is_on_sale": 1,
        "goods_name": "HANA花之瓣 花皿盘M",
        "goods_brief": "商品功能（特点）\t哑光质感和优美的外观，简约不失美丽，增添待客乐趣的器具，哑光高级的质感随时都让饭桌更显高级。\r\n规格尺寸\t花瓣皿M：約φ16×H3cm\r\n使用方式\t盛放各类美食\r\n备注说明\t不可用于微波炉/洗碗机\r\n商品描述\t1.哑光质感和优美的外观，简约不失美丽，增添待客乐趣的器具，哑光高级的质感随时都让饭桌更显高级。2.濑户烧是日本现存的古窑之一，于1977年被日本政府认定为“日本传统工艺品”。\r\n\r\n",
        "weblink": "",
        "is_promote": 0,
        "link_website": "",
        "goods_thumb": "http://img.fulishe.com/images/201908/thumb_img/16837_thumb_G_1565071128109.jpeg",
        "percentage": "0%",
        "total_goods_brokerage": 16.125,
        "is_favorited": 0,
        "isNew": 0
      },
      {
        "goods_id": 16843,
        "goods_english_name": "法国La Rochère",
        "currency_price": "￥98",
        "rank_price": "￥0",
        "goods_brokerage_per": "12.50",
        "service_price": "",
        "shipping_price": "￥0",
        "is_recommended": 0,
        "is_on_sale": 1,
        "goods_name": "凡尔赛系列玻璃碗沙拉碗透明碗S",
        "goods_brief": "商品材质\t玻璃\r\n商品功能（特点）\t意大利玻璃工艺，即可家居实用，也可观赏摆设\r\n规格尺寸\t高6.66cm，直径10.5cm， 容量270ml\r\n备注说明\t温度不要超过90度\r\n商品描述\t1.传承工艺。2.材料环保无铅。3.La Rochère法兰西血统里的优雅与骄傲。4.火烧打磨，透光性强。5.不同图腾 寓意深刻。",
        "weblink": "",
        "is_promote": 0,
        "link_website": "",
        "goods_thumb": "http://img.fulishe.com/images/201908/thumb_img/16843_thumb_G_1565072750629.jpeg",
        "percentage": "0%",
        "total_goods_brokerage": 12.25,
        "is_favorited": 0,
        "isNew": 0
      },
      {
        "goods_id": 16833,
        "goods_english_name": "CHANEL 香奈儿",
        "currency_price": "￥448",
        "rank_price": "￥0",
        "goods_brokerage_per": "12.50",
        "service_price": "",
        "shipping_price": "￥0",
        "is_recommended": 0,
        "is_on_sale": 1,
        "goods_name": "斜纹软呢星彩腮红",
        "goods_brief": " ",
        "weblink": "",
        "is_promote": 0,
        "link_website": "",
        "goods_thumb": "http://img.fulishe.com/images/201907/thumb_img/16833_thumb_G_1564047256035.JPG",
        "percentage": "0%",
        "total_goods_brokerage": 56,
        "is_favorited": 0,
        "isNew": 0
      },
      {
        "goods_id": 16831,
        "goods_english_name": "Yves Saint Laurent 圣罗兰",
        "currency_price": "￥468",
        "rank_price": "￥0",
        "goods_brokerage_per": "12.50",
        "service_price": "",
        "shipping_price": "￥0",
        "is_recommended": 0,
        "is_on_sale": 1,
        "goods_name": "明彩轻垫粉底液 羽毛气垫",
        "goods_brief": "",
        "weblink": "",
        "is_promote": 0,
        "link_website": "",
        "goods_thumb": "http://img.fulishe.com/images/201907/thumb_img/16831_thumb_G_1563955019641.JPG",
        "percentage": "0%",
        "total_goods_brokerage": 58.5,
        "is_favorited": 0,
        "isNew": 0
      },
      {
        "goods_id": 16829,
        "goods_english_name": "GIORGIO ARMANI 阿玛尼",
        "currency_price": "￥328",
        "rank_price": "￥0",
        "goods_brokerage_per": "12.50",
        "service_price": "",
        "shipping_price": "￥0",
        "is_recommended": 0,
        "is_on_sale": 1,
        "goods_name": "樱花粉胖丁高光修容腮红液",
        "goods_brief": "",
        "weblink": "",
        "is_promote": 0,
        "link_website": "",
        "goods_thumb": "http://img.fulishe.com/images/201907/thumb_img/16829_thumb_G_1563952540118.png",
        "percentage": "0%",
        "total_goods_brokerage": 41,
        "is_favorited": 0,
        "isNew": 0
      },
      {
        "goods_id": 16839,
        "goods_english_name": "日本AITO",
        "currency_price": "￥368",
        "rank_price": "￥0",
        "goods_brokerage_per": "12.50",
        "service_price": "",
        "shipping_price": "￥0",
        "is_recommended": 0,
        "is_on_sale": 1,
        "goods_name": "清福 棱 美浓烧陶瓷 茶壶茶杯茶垫",
        "goods_brief": "商品材质\t美浓烧陶瓷\r\n商品功能（特点）\t七边形白瓷茶具，大气的器型具有凛的气势，融入现代感。\r\n规格尺寸\t茶壶：約16.5×11*H11cm，430ml；茶杯：約9×8.5*H4.8cm，90ml；杯垫：約9.5×9*H1.5cm\r\n使用方式\t自用或者送礼\r\n备注说明\t不可用于微波炉/洗碗机\r\n商品描述\t七边形白瓷茶具，大气的器型具有凛的气势，融入现代感。安静的氛围，让人身心放松。\r\n",
        "weblink": "",
        "is_promote": 0,
        "link_website": "",
        "goods_thumb": "http://img.fulishe.com/images/201908/thumb_img/16839_thumb_G_1565071675509.jpeg",
        "percentage": "0%",
        "total_goods_brokerage": 46,
        "is_favorited": 0,
        "isNew": 0
      },
      {
        "goods_id": 16832,
        "goods_english_name": "LADUREE 拉杜丽",
        "currency_price": "￥888",
        "rank_price": "￥0",
        "goods_brokerage_per": "12.50",
        "service_price": "",
        "shipping_price": "￥0",
        "is_recommended": 0,
        "is_on_sale": 1,
        "goods_name": "经典玫瑰花瓣腮红",
        "goods_brief": "",
        "weblink": "",
        "is_promote": 0,
        "link_website": "",
        "goods_thumb": "http://img.fulishe.com/images/201907/thumb_img/16832_thumb_G_1564038053599.png",
        "percentage": "0%",
        "total_goods_brokerage": 111,
        "is_favorited": 0,
        "isNew": 0
      },
      {
        "goods_id": 16826,
        "goods_english_name": "LANCOME 兰蔻",
        "currency_price": "￥388",
        "rank_price": "￥0",
        "goods_brokerage_per": "12.50",
        "service_price": "",
        "shipping_price": "￥0",
        "is_recommended": 0,
        "is_on_sale": 1,
        "goods_name": "持妆粉底液",
        "goods_brief": "哑光持妆不闷痘持久遮瑕清透",
        "weblink": "",
        "is_promote": 0,
        "link_website": "",
        "goods_thumb": "http://img.fulishe.com/images/201907/thumb_img/16826_thumb_G_1563355313381.png",
        "percentage": "0%",
        "total_goods_brokerage": 48.5,
        "is_favorited": 0,
        "isNew": 0
      },
      {
        "goods_id": 16822,
        "goods_english_name": "sisley希思黎",
        "currency_price": "￥670",
        "rank_price": "￥0",
        "goods_brokerage_per": "12.50",
        "service_price": "",
        "shipping_price": "￥0",
        "is_recommended": 0,
        "is_on_sale": 1,
        "goods_name": "植物平衡净颜化妆水125ml",
        "goods_brief": "水油平衡 混合偏油肌肤适用",
        "weblink": "",
        "is_promote": 0,
        "link_website": "",
        "goods_thumb": "http://img.fulishe.com/images/201907/thumb_img/16822_thumb_G_1562922265235.png",
        "percentage": "0%",
        "total_goods_brokerage": 83.75,
        "is_favorited": 0,
        "isNew": 0
      },
      {
        "goods_id": 16836,
        "goods_english_name": "GLO＆RAY",
        "currency_price": "￥151",
        "rank_price": "￥0",
        "goods_brokerage_per": "12.50",
        "service_price": "",
        "shipping_price": "￥0",
        "is_recommended": 0,
        "is_on_sale": 1,
        "goods_name": "颜幻彩妆前乳35ml",
        "goods_brief": "",
        "weblink": "",
        "is_promote": 0,
        "link_website": "",
        "goods_thumb": "http://img.fulishe.com/images/201908/thumb_img/16836_thumb_G_1564655136177.png",
        "percentage": "0%",
        "total_goods_brokerage": 18.875,
        "is_favorited": 0,
        "isNew": 0
      },
      {
        "goods_id": 16827,
        "goods_english_name": "Kiehi's科颜氏",
        "currency_price": "￥268",
        "rank_price": "￥0",
        "goods_brokerage_per": "12.50",
        "service_price": "",
        "shipping_price": "￥0",
        "is_recommended": 0,
        "is_on_sale": 1,
        "goods_name": "亚马逊白泥净肤面膜125ml",
        "goods_brief": "",
        "weblink": "",
        "is_promote": 0,
        "link_website": "",
        "goods_thumb": "http://img.fulishe.com/images/201907/thumb_img/16827_thumb_G_1563355815191.png",
        "percentage": "0%",
        "total_goods_brokerage": 33.5,
        "is_favorited": 0,
        "isNew": 0
      },
      {
        "goods_id": 16818,
        "goods_english_name": "ETUDE HOUSE 伊蒂之屋",
        "currency_price": "￥78",
        "rank_price": "￥0",
        "goods_brokerage_per": "12.50",
        "service_price": "",
        "shipping_price": "￥0",
        "is_recommended": 0,
        "is_on_sale": 1,
        "goods_name": "甄选唇膏",
        "goods_brief": "滋润补水保湿",
        "weblink": "",
        "is_promote": 0,
        "link_website": "",
        "goods_thumb": "http://img.fulishe.com/images/201907/thumb_img/16818_thumb_G_1562223111923.JPG",
        "percentage": "0%",
        "total_goods_brokerage": 9.75,
        "is_favorited": 0,
        "isNew": 0
      },
      {
        "goods_id": 16828,
        "goods_english_name": "IPSA茵芙莎",
        "currency_price": "￥216",
        "rank_price": "￥0",
        "goods_brokerage_per": "12.50",
        "service_price": "",
        "shipping_price": "￥0",
        "is_recommended": 0,
        "is_on_sale": 1,
        "goods_name": "水润高倍防晒乳",
        "goods_brief": "",
        "weblink": "",
        "is_promote": 0,
        "link_website": "",
        "goods_thumb": "http://img.fulishe.com/images/201907/thumb_img/16828_thumb_G_1563356120153.png",
        "percentage": "0%",
        "total_goods_brokerage": 27,
        "is_favorited": 0,
        "isNew": 0
      }
    ],
    "total": 565,
    "last_page": 29,
    "current_page": 1,
    "per_page": 20
  }